Introduction to piping
…
## Getting started

```r
kickstarter
```

```
## # A tibble: 378,661 x 13
##         ID name            catego~ main_~ curr~ deadline              goal
##      <int> <chr>           <chr>   <chr>  <chr> <dttm>               <dbl>
##  1  1.00e9 The Songs of A~ Poetry  Publi~ GBP   2015-10-09 11:36:00   1000
##  2  1.00e9 Greeting From ~ Narrat~ Film ~ USD   2017-11-01 03:43:57  30000
##  3  1.00e9 Where is Hank?  Narrat~ Film ~ USD   2013-02-26 00:20:50  45000
##  4  1.00e9 ToshiCapital R~ Music   Music  USD   2012-04-16 04:24:11   5000
##  5  1.00e9 Community Film~ Film &~ Film ~ USD   2015-08-29 01:00:00  19500
##  6  1.00e9 Monarch Espres~ Restau~ Food   USD   2016-04-01 13:38:27  50000
##  7  1.00e9 Support Solar ~ Food    Food   USD   2014-12-21 18:30:44   1000
##  8  1.00e9 Chaser Strips.~ Drinks  Food   USD   2016-03-17 19:05:12  25000
##  9  1.00e9 SPIN - Premium~ Produc~ Design USD   2014-05-29 18:14:43 125000
## 10  1.00e8 STUDIO IN THE ~ Docume~ Film ~ USD   2014-08-10 21:55:48  65000
## # ... with 378,651 more rows, and 6 more variables: launched <dttm>,
## #   pledged <dbl>, state <chr>, backers <int>, country <chr>, `usd
## #   pledged` <dbl>
```

```r
kickstarter %>% 
  select(state)
```

```
## # A tibble: 378,661 x 1
##    state     
##    <chr>     
##  1 failed    
##  2 failed    
##  3 failed    
##  4 failed    
##  5 canceled  
##  6 successful
##  7 successful
##  8 failed    
##  9 canceled  
## 10 canceled  
## # ... with 378,651 more rows
```
…
